<svg xmlns="http://www.w3.org/2000/svg" width="64px" height="64px" viewBox="0 0 64 64" version="1.1"
     focusable="false" class="w-5 h-5 absolute right-3 top-4">
  <title>expand</title>
  <g stroke="none" stroke-width="1" fill="none" fill-rule="evenodd">
    <rect fill-opacity="0" fill="#FFFFFF" x="0" y="0" width="64" height="64"></rect>
    <polygon fill="#0857aa" points="4 18 13.7934034 18 32 36.079739 32.3754984 35.7042407 50.2040594 18 60 18 32 45.748822"
             class="group-hover:fill-anchorBlueAccent group-focus:fill-anchorBlueAccent fill-black"></polygon>
  </g>
</svg>
